[
  {
    "name": "leadTimeToProduction",
    "chartType": "line",
    "supportedChartTypes": ["line", "bar", "area"],
    "textstyle": { "fontFamily": "Roboto" },
    "screenOccupancy": {
      "horizontal": "12",
      "vertical": "2"
    },
    "drilldown": null,
    "selectedIndex": 4,
    "mytitle": {
      "text": "Lead Time To Change",
      "subtitle": "Measuring the average amount of time between when a change enters - development to when it is deployed into Production."
    },
    "color": "#EF9A4A",
    "xAxis": [
      {
        "type": "category",
        "name": "User Storys",
        "nameLocation": "center",
        "nameGap": 30,
        "nameTextStyle": {
          "fontSize": 15
        }
      }
    ],
    "dataZoom": [
      {
        "show": true,
        "type": "inside"
      }
    ],
    "grid": {
      "left": "center",
      "width": "90%",
      "height": "73%",
      "containLabel": true,
      "top": "15%"
    },
    "yAxis": [
      {
        "type": "value",
        "name": "Time in Hours",
        "nameTextStyle": {
          "fontSize": 15,
          "padding": [0, 0, 0, 100]
        }
      }
    ],
    "series": [
      {
        "type": "bar",
        "defaultType": "bar"
      }
    ],
    "tooltip": {
      "trigger": "axis",
      "axisPointer": {
        "type": "shadow"
      }
    }
  },
  {
    "name": "deploymentFrequency",
    "chartType": "line",
    "supportedChartTypes": ["line", "bar", "area"],
    "textstyle": { "fontFamily": "Roboto" },
    "screenOccupancy": {
      "horizontal": "12",
      "vertical": "2"
    },
    "drilldown": null,
    "selectedIndex": 5,
    "mytitle": {
      "text": "Deployment Frequency",
      "subtitle": "Measure the number of Production deployments over a given timeframe"
    },
    "color": ["#EF9A9A", "#bcf542"],
    "xAxis": [
      {
        "type": "category",
        "name": "Timeline",
        "nameLocation": "center",
        "nameGap": 30,
        "nameTextStyle": {
          "fontSize": 15
        }
      }
    ],
    "legend": {
      "data": ["Regular", "Hotfix"],
      "itemGap": 5,
      "bottom": "-20px"
    },
    "dataZoom": [
      {
        "show": true,
        "type": "inside"
      }
    ],
    "yAxis": [
      {
        "type": "value",
        "name": "Deployment count",
        "nameLocation": "end",
        "nameTextStyle": {
          "fontSize": 15,
          "padding": [0, 0, 0, 100]
        }
      }
    ],
    "series": [
      {
        "type": "bar",
        "defaultType": "bar"
      },
      {
        "type": "bar",
        "defaultType": "bar"
      }
    ],
    "grid": {
      "left": "center",
      "width": "90%",
      "height": "73%",
      "containLabel": true,
      "top": "15%"
    },
    "tooltip": {
      "trigger": "axis",
      "axisPointer": {
        "type": "shadow"
      }
    }
  },
  {
    "name": "buildFailureRate",
    "chartType": "line",
    "supportedChartTypes": ["line", "bar", "area"],
    "textstyle": { "fontFamily": "Roboto" },
    "screenOccupancy": {
      "horizontal": "12",
      "vertical": "2"
    },
    "drilldown": null,
    "selectedIndex": 0,
    "mytitle": {
      "text": "Build Failure Rate",
      "subtitle": "Ongoing count of build failures occurring over a defined period."
    },
    "color": "#EF9A9A",
    "xAxis": [
      {
        "type": "category",
        "name": "Timeline",
        "nameLocation": "center",
        "nameGap": 30,
        "nameTextStyle": {
          "fontSize": 15
        }
      }
    ],
    "dataZoom": [
      {
        "show": true,
        "type": "inside"
      }
    ],
    "yAxis": [
      {
        "type": "value",
        "name": "% of failure",
        "nameLocation": "end",
        "nameTextStyle": {
          "fontSize": 15
        }
      }
    ],
    "series": [
      {
        "type": "bar",
        "defaultType": "bar"
      }
    ],
    "grid": {
      "left": "center",
      "width": "90%",
      "height": "73%",
      "containLabel": true,
      "top": "15%"
    },
    "tooltip": {
      "trigger": "axis",
      "axisPointer": {
        "type": "shadow"
      }
    }
  },
  {
    "name": "deploymentFailureRate",
    "chartType": "bar",
    "supportedChartTypes": ["line", "bar", "area"],
    "textstyle": { "fontFamily": "Roboto" },
    "screenOccupancy": {
      "horizontal": "12",
      "vertical": "2"
    },
    "drilldown": null,
    "selectedIndex": 1,
    "mytitle": {
      "text": "Deployment Failure Rate",
      "subtitle": "Ongoing count of deployment failures occurring over a defined period."
    },
    "color": ["#bcf542"],
    "tooltip": {
      "trigger": "axis",
      "axisPointer": {
        "type": "shadow"
      }
    },
    "xAxis": [
      {
        "type": "category",
        "name": "Timeline",
        "nameLocation": "center",
        "nameGap": 30,
        "nameTextStyle": {
          "fontSize": 15
        }
      }
    ],
    "yAxis": [
      {
        "type": "value",
        "max": 100,
        "name": "% of failure",
        "nameLocation": "end",
        "nameTextStyle": {
          "fontSize": 15
        }
      }
    ],
    "series": [
      {
        "type": "bar",
        "barWidth": "60%",
        "defaultType": "bar"
      }
    ],
    "dataZoom": [
      {
        "show": true,
        "type": "inside"
      }
    ],
    "grid": {
      "left": "center",
      "width": "90%",
      "height": "73%",
      "containLabel": true,
      "top": "15%"
    }
  },
  {
    "name": "commitsPerDay",
    "chartType": "line",
    "supportedChartTypes": ["line", "bar", "area"],
    "textstyle": { "fontFamily": "Roboto" },
    "screenOccupancy": {
      "horizontal": "12",
      "vertical": "2"
    },
    "drilldown": null,
    "mytitle": {
      "text": "Commits Per Day",
      "subtitle": "Display the number of code commits accomplished every 24 hours."
    },
    "color": ["#3398DB"],
    "tooltip": {
      "trigger": "axis",
      "axisPointer": {
        "type": "shadow"
      }
    },
    "xAxis": [
      {
        "type": "value",
        "name": "Commits Per Day",
        "nameLocation": "center",
        "nameGap": 30,
        "nameTextStyle": {
          "fontSize": 15
        }
      }
    ],
    "yAxis": [
      {
        "type": "category",
        "name": "Timeline",
        "nameLocation": "end",
        "nameTextStyle": {
          "fontSize": 15
        }
      }
    ],
    "series": [
      {
        "type": "bar",
        "barWidth": "60%",
        "defaultType": "bar"
      }
    ],
    "grid": {
      "left": "center",
      "width": "90%",
      "height": "73%",
      "containLabel": true,
      "top": "15%"
    }
  },
  {
    "name": "timeToBuildAndDeploy",
    "chartType": "line",
    "supportedChartTypes": ["line", "bar", "area"],
    "textstyle": { "fontFamily": "Roboto" },
    "screenOccupancy": {
      "horizontal": "12",
      "vertical": "2"
    },
    "drilldown": null,
    "mytitle": {
      "text": "Time to Build & Deploy",
      "subtitle": "Time to Build & Deploy KPI description"
    },
    "grid": {
      "left": "center",
      "width": "90%",
      "height": "73%",
      "containLabel": true,
      "top": "15%"
    },
    "tooltip": {
      "trigger": "axis",
      "axisPointer": {
        "type": "shadow"
      }
    },
    "dataZoom": [
      {
        "show": true,
        "type": "inside"
      }
    ],
    "calculable": true,
    "xAxis": [
      {
        "type": "category",
        "name": "Timeline",
        "nameLocation": "center",
        "nameGap": 30,
        "nameTextStyle": {
          "fontSize": 15
        }
      }
    ],
    "yAxis": [
      {
        "type": "value",
        "name": "Time in  milli seconds",
        "nameLocation": "end",
        "nameTextStyle": {
          "fontSize": 15,
          "padding": [0, 0, 0, 100]
        }
      }
    ],
    "legend": {
      "data": ["Build", "Deploy"],
      "itemGap": 5,
      "bottom": "-20px"
    },
    "series": [
      {
        "type": "bar",
        "defaultType": "bar"
      },
      {
        "type": "bar",
        "defaultType": "bar"
      }
    ]
  },
  {
    "name": "monthlyActiveUsers",
    "chartType": "line",
    "supportedChartTypes": ["line", "bar", "area"],
    "textstyle": { "fontFamily": "Roboto" },
    "screenOccupancy": {
      "horizontal": "6",
      "vertical": "2"
    },
    "drilldown": null,
    "mytitle": {
      "text": "Average Monthly Active Users",
      "subtitle": "Aggregate the sum of daily active users over a period of a month. A person must open or view the application at least once in a month."
    },
    "color": ["#bcf542"],
    "tooltip": {
      "trigger": "axis",
      "axisPointer": {
        "type": "shadow"
      }
    },
    "xAxis": [
      {
        "type": "category",
        "name": "Timeline",
        "nameLocation": "center",
        "nameGap": 30,
        "nameTextStyle": {
          "fontSize": 15
        }
      }
    ],
    "yAxis": [
      {
        "type": "value",
        "name": "Users",
        "nameLocation": "end",
        "nameTextStyle": {
          "fontSize": 15
        }
      }
    ],
    "series": [
      {
        "type": "bar",
        "barWidth": "60%",
        "defaultType": "bar"
      }
    ],
    "dataZoom": [
      {
        "show": true,
        "type": "inside"
      }
    ],
    "grid": {
      "left": "center",
      "width": "90%",
      "height": "73%",
      "containLabel": true,
      "top": "15%"
    }
  },
  {
    "name": "averageDailyActiveUsers",
    "chartType": "line",
    "supportedChartTypes": ["line", "bar", "area"],
    "textstyle": { "fontFamily": "Roboto" },
    "screenOccupancy": {
      "horizontal": "6",
      "vertical": "2"
    },
    "drilldown": null,
    "mytitle": {
      "text": "Average Daily Active Users",
      "subtitle": "Average number of users that login or interact with the application daily."
    },
    "color": ["#EF9A9A"],
    "tooltip": {
      "trigger": "axis",
      "axisPointer": {
        "type": "shadow"
      }
    },
    "xAxis": [
      {
        "type": "category",
        "name": "Timeline",
        "nameLocation": "center",
        "nameGap": 30,
        "nameTextStyle": {
          "fontSize": 15
        }
      }
    ],
    "yAxis": [
      {
        "type": "value",
        "name": "Users",
        "nameLocation": "end",
        "nameTextStyle": {
          "fontSize": 15
        }
      }
    ],
    "series": [
      {
        "type": "line",
        "barWidth": "60%",
        "defaultType": "line"
      }
    ],
    "dataZoom": [
      {
        "show": true,
        "type": "inside"
      }
    ],
    "grid": {
      "left": "center",
      "width": "90%",
      "height": "73%",
      "containLabel": true,
      "top": "15%"
    }
  },
  {
    "name": "averageSessionsPerUser",
    "chartType": "line",
    "supportedChartTypes": ["line", "bar", "area"],
    "textstyle": { "fontFamily": "Roboto" },
    "screenOccupancy": {
      "horizontal": "12",
      "vertical": "2"
    },
    "drilldown": null,
    "mytitle": {
      "text": "Average Sessions per User",
      "subtitle": "When the number of sessions is going up over time, that is considered a good thing, it means there is more traffic to the application. "
    },
    "color": ["#81C784"],
    "tooltip": {
      "trigger": "axis",
      "axisPointer": {
        "type": "shadow"
      }
    },
    "xAxis": [
      {
        "type": "category",
        "name": "Timeline",
        "nameLocation": "center",
        "nameGap": 30,
        "nameTextStyle": {
          "fontSize": 15
        }
      }
    ],
    "yAxis": [
      {
        "type": "value",
        "name": "Sessions",
        "nameLocation": "end",
        "nameTextStyle": {
          "fontSize": 15
        }
      }
    ],
    "series": [
      {
        "type": "line",
        "barWidth": "60%",
        "defaultType": "line"
      }
    ],
    "dataZoom": [
      {
        "show": true,
        "type": "inside"
      }
    ],
    "grid": {
      "left": "center",
      "width": "90%",
      "height": "73%",
      "containLabel": true,
      "top": "15%"
    }
  },
  {
    "name": "averagePagesPerSession",
    "textstyle": { "fontFamily": "Roboto" },
    "screenOccupancy": {
      "horizontal": "6",
      "vertical": "2"
    },
    "drilldown": null,
    "chartType": "line",
    "supportedChartTypes": ["line", "bar", "area"],
    "selectedIndex": 1,
    "mytitle": {
      "text": "Average Pageviews Per Session",
      "subtitle": "How many pages an average visitor viewed on our website per session."
    },
    "color": ["#81C784"],
    "tooltip": {
      "trigger": "axis",
      "axisPointer": {
        "type": "shadow"
      }
    },
    "xAxis": [
      {
        "type": "category",
        "name": "Timeline",
        "nameLocation": "center",
        "nameGap": 30,
        "nameTextStyle": {
          "fontSize": 15
        }
      }
    ],
    "yAxis": [
      {
        "type": "value",
        "name": "Pages",
        "nameLocation": "end",
        "nameTextStyle": {
          "fontSize": 15
        }
      }
    ],
    "series": [
      {
        "type": "line",
        "barWidth": "60%",
        "defaultType": "line"
      }
    ],
    "dataZoom": [
      {
        "show": true,
        "type": "inside"
      }
    ],
    "grid": {
      "left": "center",
      "width": "90%",
      "height": "73%",
      "containLabel": true,
      "top": "15%"
    }
  },
  {
    "name": "averageBounceRate",
    "chartType": "line",
    "supportedChartTypes": ["line", "bar", "area"],
    "textstyle": { "fontFamily": "Roboto" },
    "screenOccupancy": {
      "horizontal": "6",
      "vertical": "2"
    },
    "drilldown": null,
    "mytitle": {
      "text": "Average Bounce Rate",
      "subtitle": "A bounce occurs when someone visits your website and leaves without interacting further with our Site. The bounce rate shows you the percentage of your visitors who bounce off your site. High bounce rate is bad, and a low rate is good"
    },
    "color": ["#81C784"],
    "tooltip": {
      "trigger": "axis",
      "axisPointer": {
        "type": "shadow"
      }
    },
    "xAxis": [
      {
        "type": "category",
        "name": "Timeline",
        "nameLocation": "center",
        "nameGap": 30,
        "nameTextStyle": {
          "fontSize": 15
        }
      }
    ],
    "yAxis": [
      {
        "type": "value",
        "name": "Percent",
        "max": 100,
        "nameLocation": "end",
        "nameTextStyle": {
          "fontSize": 15
        }
      }
    ],
    "series": [
      {
        "type": "bar",
        "barWidth": "60%",
        "defaultType": "bar"
      }
    ],
    "dataZoom": [
      {
        "show": true,
        "type": "inside"
      }
    ],
    "grid": {
      "left": "center",
      "width": "90%",
      "height": "73%",
      "containLabel": true,
      "top": "15%"
    }
  },
  {
    "name": "totalSessionsSinceLaunch",
    "chartType": "line",
    "supportedChartTypes": ["line", "bar", "area"],
    "textstyle": { "fontFamily": "Roboto" },
    "screenOccupancy": {
      "horizontal": "12",
      "vertical": "2"
    },
    "drilldown": null,
    "mytitle": {
      "text": "Total Sessions Since Launch",
      "subtitle": "Session is defined as a group of interactions – the user takes the application per unique login."
    },
    "color": ["#81C784"],
    "tooltip": {
      "trigger": "axis",
      "axisPointer": {
        "type": "shadow"
      }
    },
    "xAxis": [
      {
        "type": "category",
        "name": "Timeline",
        "nameLocation": "center",
        "nameGap": 30,
        "nameTextStyle": {
          "fontSize": 15
        }
      }
    ],
    "yAxis": [
      {
        "type": "value",
        "name": "Sessions",
        "nameLocation": "end",
        "nameTextStyle": {
          "fontSize": 15
        }
      }
    ],
    "series": [
      {
        "type": "line",
        "barWidth": "60%",
        "defaultType": "line"
      }
    ],
    "dataZoom": [
      {
        "show": true,
        "type": "inside"
      }
    ],
    "grid": {
      "left": "center",
      "width": "90%",
      "height": "73%",
      "containLabel": true,
      "top": "15%"
    }
  },
  {
    "name": "pageViewsSinceLaunch",
    "chartType": "table",
    "supportedChartTypes": ["table"],
    "textstyle": { "fontFamily": "Roboto" },
    "screenOccupancy": {
      "horizontal": "12",
      "vertical": "3"
    },
    "xAxis": [
      {
        "type": "category"
      }
    ],
    "drilldown": {
      "name": "pageViewsPerpage",
      "parameters": {
        "drilldownValue": null
      }
    },
    "selectedIndex": 1,
    "mytitle": {
      "text": "Page Views Since Launch",
      "subtitle": "Page views are tallied for each unique page of the application."
    },
    "color": ["#81C784"],
    "header": ["Pages", "Page Views"],
    "accessColumns": ["column_1", "column_2"],
    "series": [
      {
        "type": "table",
        "defaultType": "table"
      }
    ],
    "grid": {
      "left": "center",
      "width": "90%",
      "height": "73%",
      "containLabel": true,
      "top": "15%"
    }
  },
  {
    "name": "averageTimeOnConnectWeb",
    "chartType": "table",
    "accessColumns": ["column_1", "column_2"],
    "supportedChartTypes": ["table"],
    "textstyle": { "fontFamily": "Roboto" },
    "screenOccupancy": {
      "horizontal": "12",
      "vertical": "3"
    },
    "xAxis": [
      {
        "type": "category"
      }
    ],
    "drilldown": {
      "name": "averageTimePerPage",
      "parameters": {
        "drilldownValue": null
      }
    },
    "mytitle": {
      "text": "Average Time on connect Web",
      "subtitle": "Average time member spends on the application."
    },
    "color": ["#81C784"],
    "header": ["Pages", "Average Time in Seconds"],

    "series": [
      {
        "type": "table",
        "defaultType": "table"
      }
    ]
  },
  {
    "name": "averageTimePerPage",
    "chartType": "line",
    "supportedChartTypes": ["line", "bar", "area"],
    "textstyle": { "fontFamily": "Roboto" },
    "screenOccupancy": {
      "horizontal": "6",
      "vertical": "3"
    },
    "drilldown": null,
    "mytitle": {
      "text": "Day wise Average time spent on a page  ",
      "subtitle": "Day wise Average time spent on a page"
    },
    "color": ["#81C784"],
    "tooltip": {
      "trigger": "axis",
      "axisPointer": {
        "type": "shadow"
      }
    },
    "xAxis": [
      {
        "type": "category",
        "name": "Timeline",
        "nameLocation": "center",
        "nameGap": 36,
        "nameTextStyle": {
          "fontSize": 15
        }
      }
    ],
    "yAxis": [
      {
        "type": "value",
        "name": "Percent",
        "max": 100,
        "nameLocation": "end",
        "nameTextStyle": {
          "fontSize": 15
        }
      }
    ],
    "series": [
      {
        "type": "bar",
        "barWidth": "60%",
        "defaultType": "bar"
      }
    ],
    "dataZoom": [
      {
        "show": true,
        "type": "inside"
      }
    ],
    "grid": {
      "left": "center",
      "width": "90%",
      "height": "73%",
      "containLabel": true,
      "top": "15%"
    }
  },
  {
    "name": "sqlKpiMetric",
    "mytitle": {
      "text": "SQL DB Metrics",
      "subtitle": "These are the Engagement KPI's to measure the effectiveness of the application. Calculated based on the number of connections enabled, exchanged IMs, emails delivered, posts, comments, replies, likes, mentions and follows."
    },
    "legend": {
      "bottom": 10,
      "left": "center"
    },
    "drilldown": null,
    "chartType": "multi",
    "supportedChartTypes": ["multi"],
    "textstyle": { "fontFamily": "Roboto" },
    "screenOccupancy": {
      "horizontal": "12",
      "vertical": "2"
    },
    "tooltip": {
      "trigger": "item",
      "formatter": "{a} <br/>{c}",
      "position": "right"
    },
    "grid": [
      { "x": "7%", "y2": "7%", "width": "38%", "height": "38%" },
      { "x2": "7%", "y2": "7%", "width": "38%", "height": "38%" }
    ],
    "xAxis": [
      {
        "type": "value",
        "gridIndex": 0
      },
      {
        "type": "value",
        "gridIndex": 1
      }
    ],
    "yAxis": [
      {
        "type": "category",
        "gridIndex": 0
      },
      {
        "type": "category",
        "gridIndex": 1
      }
    ],
    "series": [
      {
        "type": "pie",
        "radius": ["20%", "25%"],
        "center": ["10%", "20%"],
        "label": {
          "normal": {
            "show": true,
            "position": "center"
          },
          "emphasis": {
            "show": true,
            "textStyle": {
              "fontSize": "20",
              "fontWeight": "bold"
            }
          }
        },
        "data":[],
        "labelLine": {
          "normal": {
            "show": true
          }
        }
      },
      {
        "type": "pie",
        "radius": ["20%", "25%"],
        "center": ["40%", "20%"],
        
        "data":[],
        "label": {
          "normal": {
            "show": true,
            "position": "center"
          },
          "emphasis": {
            "show": true,
            "textStyle": {
              "fontSize": "20",
              "fontWeight": "bold"
            }
          }
        }
      },
      {
        "type": "pie",
        "radius": ["20%", "25%"],
        "center": ["70%", "20%"],

        "label": {
          "normal": {
            "show": true,
            "position": "center"
          },
          "emphasis": {
            "show": true,
            "textStyle": {
              "fontSize": "20",
              "fontWeight": "bold"
            }
          }
        },
        "labelLine": {
          "normal": {
            "show": true
          }
        },
        "series": null,
        "axis": null
      },
      {
        "type": "bar",
        "xAxisIndex": 0,
        "yAxisIndex": 0,
        "label": {
          "normal": {
            "show": true,

            "align": "left",
            "verticalAlign": "middle",
            "position": "insideBottom",
            "distance": 15
          }
        }
      },
      {
        "type": "bar",
        "xAxisIndex": 1,
        "yAxisIndex": 1,
        "label": {
          "normal": {
            "show": true,

            "align": "left",
            "verticalAlign": "middle",
            "position": "insideBottom",
            "distance": 15
          }
        }
      }
    ],
    "selectedChartType": "multi"
  },

  {
    "name": "pageViewsPerpage",
    "chartType": "line",
    "supportedChartTypes": ["line", "bar", "area"],
    "textstyle": { "fontFamily": "Roboto" },
    "screenOccupancy": {
      "horizontal": "12",
      "vertical": "3"
    },
    "drilldown": null,
    "mytitle": {
      "text": "Page Views Per Page",
      "subtitle": "Pageviews count for each page"
    },
    "color": ["#81C784"],
    "tooltip": {
      "trigger": "axis",
      "axisPointer": {
        "type": "shadow"
      }
    },
    "xAxis": [
      {
        "data": [],
        "type": "category",
        "name": "Timeline",
        "nameLocation": "center",
        "nameGap": 30,
        "nameTextStyle": {
          "fontWeight": "bold",
          "fontSize": 15
        }
      }
    ],
    "yAxis": [
      {
        "type": "value",
        "name": "",
        "nameLocation": "end",
        "nameGap": 30,
        "nameTextStyle": {
          "padding": [3, 4, 5, 100],
          "fontWeight": "bold",
          "fontSize": 15
        }
      }
    ],
    "series": [
      {
        "type": "line",
        "barWidth": "60%",
        "data": []
      }
    ],
    "dataZoom": [
      {
        "show": true,
        "type": "inside"
      }
    ],
    "grid": {
      "left": "center",
      "width": "90%",
      "height": "73%",
      "containLabel": true,
      "top": "15%"
    }
  },
  {
    "name": "adoTotalReleases",
    "mytitle": {
      "text": "Total Releases",
      "subtitle": "Total Releases"
    },
    "drilldown": {
      "name": "adoWeeklyReleases",
      "parameters": {
        "drilldownValue": null
      }
    },
    "color": ["#ef8475"],
    "chartType": "donut",
    "supportedChartTypes": ["donut", "pie"],
    "textstyle": { "fontFamily": "Roboto" },
    "screenOccupancy": {
      "horizontal": "3",
      "vertical": "1"
    },
    "tooltip": {
      "show": false
    },

    "series": [
      {
        "type": "pie",
        "radius": ["20%", "25%"],
        "data": [
          {
            "name": "3230",
            "value": 3230,
            "data": [],
            "series": null,
            "axis": null
          }
        ],

        "label": {
          "normal": {
            "show": true,
            "position": "center"
          },
          "emphasis": {
            "show": true,
            "textStyle": {
              "fontSize": "20",
              "fontWeight": "bold"
            }
          }
        }
      }
    ]
  },
  {
    "mytitle": {
      "text": "Storypoints Of All Teams In All Iterations",
      "subtitle": "Storypoints Of All Teams In All Iterations"
    },
    "name": "adoTeamVelocity",
    "chartType": "donut",
    "color": "#f4829d",
    "supportedChartTypes": ["donut", "pie"],
    "textstyle": { "fontFamily": "Roboto" },
    "screenOccupancy": {
      "horizontal": "3",
      "vertical": "1"
    },
    "drilldown": {
      "name": "adoIterationsStorypoint",
      "parameters": {
        "drilldownValue": null
      }
    },
    "tooltip": {
      "show": false
    },

    "series": [
      {
        "type": "pie",
        "radius": ["20%", "25%"],
        "data": [
          {
            "name": "3230",
            "value": 3230,
            "data": [],
            "series": null,
            "axis": null
          }
        ],

        "label": {
          "normal": {
            "show": true,
            "position": "center"
          },
          "emphasis": {
            "show": true,
            "textStyle": {
              "fontSize": "20",
              "fontWeight": "bold"
            }
          }
        }
      }
    ]
  },
  {
    "name": "leadTimeToProduction",
    "chartType": "line",
    "supportedChartTypes": ["line", "bar", "area"],
    "textstyle": { "fontFamily": "Roboto" },
    "screenOccupancy": {
      "horizontal": "12",
      "vertical": "2"
    },
    "drilldown": null,
    "selectedIndex": 4,
    "mytitle": {
      "text": "Lead Time To Change",
      "subtitle": "Measuring the average amount of time between when a change enters development to when it is deployed into Production."
    },
    "color": "#EF9A4A",
    "xAxis": [
      {
        "type": "category",
        "name": "User Storys",
        "nameLocation": "center",
        "nameGap": 30,
        "nameTextStyle": {
          "fontSize": 15
        }
      }
    ],
    "dataZoom": [
      {
        "show": true,
        "type": "inside"
      }
    ],
    "grid": {
      "left": "center",
      "width": "90%",
      "height": "73%",
      "containLabel": true,
      "top": "15%"
    },
    "yAxis": [
      {
        "type": "value",
        "name": "Time in Hours",
        "nameTextStyle": {
          "fontSize": 15,
          "padding": [0, 0, 0, 100]
        }
      }
    ],
    "series": [
      {
        "type": "bar",
        "defaultType": "bar"
      }
    ],
    "tooltip": {
      "trigger": "axis",
      "axisPointer": {
        "type": "shadow"
      }
    }
  },
  {
    "mytitle": {
      "text": "Releases per week",
      "subtitle": "Releases occurred in a week"
    },
    "name": "adoWeeklyReleases",
    "chartType": "bar",
    "supportedChartTypes": ["bar", "line", "area"],
    "drilldown": {
      "name": "adoDailyReleases",
      "parameters": {
        "drilldownValue": null
      }
    },
    "xAxis": [
      {
        "type": "category",

        "nameGap": 30,
        "nameTextStyle": {
          "fontSize": 15
        }
      }
    ],
    "yAxis": [
      {
        "type": "value",
        "name": "Time in Hours",
        "nameTextStyle": {
          "fontSize": 15,
          "padding": [0, 0, 0, 100]
        }
      }
    ],
    "textstyle": { "fontFamily": "Roboto" },
    "screenOccupancy": {
      "horizontal": "12",
      "vertical": "3"
    },
    "tooltip": {
      "show": false
    },
    "series": [
      {
        "type": "bar",
        "defaultType": "bar"
      }
    ],
    "grid": {
      "left": "center",
      "width": "90%",
      "height": "73%",
      "containLabel": true,
      "top": "15%"
    }
  },
  {
    "mytitle": {
      "text": "Completed User Stories",
      "subtitle": "Completed User Stories"
    },
    "name": "adoUserStoriesCompleted",
    "chartType": "donut",
    "supportedChartTypes": ["donut", "pie"],
    "textstyle": { "fontFamily": "Roboto" },
    "screenOccupancy": {
      "horizontal": "3",
      "vertical": "1"
    },
    "color": "#ef8475",
    "drilldown": {
      "name": "adoUserStoriesPerIteration",
      "parameters": {
        "drilldownValue": null
      }
    },
    "tooltip": {
      "trigger": "item",
      "formatter": "{a} <br/>{c}",
      "position": "right"
    },

    "series": [
      {
        "type": "pie",
        "radius": ["20%", "25%"],
        "data": [
          {
            "name": "3230",
            "value": 3230,
            "data": [],
            "series": null,
            "axis": null
          }
        ],

        "label": {
          "normal": {
            "show": true,
            "position": "center"
          },
          "emphasis": {
            "show": true,
            "textStyle": {
              "fontSize": "20",
              "fontWeight": "bold"
            }
          }
        }
      }
    ]
  },
  {
    "mytitle": {
      "text": "Completed Iterations",
      "subtitle": "Completed Iterations"
    },
    "name": "adoCompletedIterations",
    "chartType": "donut",
    "supportedChartTypes": ["donut", "pie"],
    "textstyle": { "fontFamily": "Roboto" },
    "screenOccupancy": {
      "horizontal": "3",
      "vertical": "1"
    },
    "tooltip": {
      "show": false
    },
    "color": "#f27e96",
    "drilldown": null,
    "series": [
      {
        "type": "pie",
        "radius": ["20%", "25%"],
        "data": [
          {
            "name": "3230",
            "value": 3230,
            "data": [],
            "series": null,
            "axis": null
          }
        ],

        "label": {
          "normal": {
            "show": true,
            "position": "center"
          },
          "emphasis": {
            "show": true,
            "textStyle": {
              "fontSize": "20",
              "fontWeight": "bold"
            }
          }
        }
      }
    ]
  },
  {
    "mytitle": {
      "text": "Features Completed",
      "subtitle": "Features Completed"
    },
    "color": "#29c5b4",
    "name": "adoFeaturesCompleted",
    "chartType": "donut",
    "supportedChartTypes": ["donut", "pie"],
    "textstyle": { "fontFamily": "Roboto" },
    "screenOccupancy": {
      "horizontal": "3",
      "vertical": "1"
    },
    "drilldown": {
      "name": "adoIterationsCompletedFeatures",
      "parameters": {
        "drilldownValue": null
      }
    },
    "tooltip": {
      "show": false
    },

    "series": [
      {
        "type": "pie",
        "radius": ["20%", "25%"],
        "data": [
          {
            "name": "3230",
            "value": 3230,
            "data": [],
            "series": null,
            "axis": null
          }
        ],

        "label": {
          "normal": {
            "show": true,
            "position": "center"
          },
          "emphasis": {
            "show": true,
            "textStyle": {
              "fontSize": "20",
              "fontWeight": "bold"
            }
          }
        }
      }
    ]
  },
  {
    "mytitle": {
      "text": "Epics Completed",
      "subtitle": "Epics Completed"
    },
    "color": "#f08475",
    "name": "adoEpicsCompleted",
    "chartType": "donut",
    "supportedChartTypes": ["donut", "pie"],
    "textstyle": { "fontFamily": "Roboto" },
    "screenOccupancy": {
      "horizontal": "3",
      "vertical": "1"
    },
    "tooltip": {
      "show": false
    },

    "series": [
      {
        "type": "pie",
        "radius": ["20%", "25%"],
        "data": [
          {
            "name": "3230",
            "value": 3230,
            "data": [],
            "series": null,
            "axis": null
          }
        ],

        "label": {
          "normal": {
            "show": true,
            "position": "center"
          },
          "emphasis": {
            "show": true,
            "textStyle": {
              "fontSize": "20",
              "fontWeight": "bold"
            }
          }
        }
      }
    ]
  },

  {
    "name": "adoDefectsClosed",
    "chartType": "donut",
    "supportedChartTypes": ["donut", "pie"],
    "mytitle": {
      "text": "Defects Closed",
      "subtitle": "Defects Closed"
    },
    "color": ["#5191e7"],
    "drilldown": {
      "name": "adoDefectsClosedPerIteration",
      "parameters": {
        "drilldownValue": null
      }
    },
    "textstyle": { "fontFamily": "Roboto" },
    "screenOccupancy": {
      "horizontal": "3",
      "vertical": "1"
    },
    "tooltip": {
      "show": false
    },

    "series": [
      {
        "type": "pie",
        "radius": ["20%", "25%"],
        "data": [
          {
            "name": "3230",
            "value": 3230,
            "data": [],
            "series": null,
            "axis": null
          }
        ],

        "label": {
          "normal": {
            "show": true,
            "position": "center"
          },
          "emphasis": {
            "show": true,
            "textStyle": {
              "fontSize": "20",
              "fontWeight": "bold"
            }
          }
        }
      }
    ]
  },
  {
    "mytitle": {
      "text": "Completed Hot Fixes",
      "subtitle": "Completed Hot Fixes"
    },
    "drilldown": {
      "name": "adoHotfixesClosedPerIteration",
      "parameters": {
        "drilldownValue": null
      }
    },
    "color": "#5090e6",
    "name": "adoHotfixesinIteration",
    "chartType": "donut",
    "supportedChartTypes": ["donut", "pie"],
    "textstyle": { "fontFamily": "Roboto" },
    "screenOccupancy": {
      "horizontal": "3",
      "vertical": "1"
    },
    "tooltip": {
      "show": false
    },

    "series": [
      {
        "type": "pie",
        "radius": ["20%", "25%"],
        "data": [
          {
            "name": "3230",
            "value": 3230,
            "data": [],
            "series": null,
            "axis": null
          }
        ],

        "label": {
          "normal": {
            "show": true,
            "position": "center"
          },
          "emphasis": {
            "show": true,
            "textStyle": {
              "fontSize": "20",
              "fontWeight": "bold"
            }
          }
        }
      }
    ]
  },
  {
    "name": "adoDailyReleases",
    "chartType": "table",
    "supportedChartTypes": ["table"],
    "textstyle": { "fontFamily": "Roboto" },
    "screenOccupancy": {
      "horizontal": "12",
      "vertical": "3"
    },
    "xAxis": [
      {
        "type": "category"
      }
    ],
    "drilldown": null,
    "mytitle": {
      "text": "Releases Per Day",
      "subtitle": "Releases occurred in a day"
    },
    "color": ["#81C784"],
    "header": ["Release Date", "Release Count"],
    "accessColumns": ["column_1", "column_2"],
    "series": [
      {
        "type": "table",
        "defaultType": "table"
      }
    ]
  },
  {
    "name": "adoIterationsStorypoint",
    "chartType": "bar",
    "supportedChartTypes": ["line", "bar", "area"],
    "textstyle": { "fontFamily": "Roboto" },
    "screenOccupancy": {
      "horizontal": "12",
      "vertical": "3"
    },
    "drilldown": {
      "name": "adoStorypointPerTeam",
      "parameters": {
        "drilldownValue": null
      }
    },
    "selectedIndex": 5,
    "mytitle": {
      "text": "Storypoint Per Iteration",
      "subtitle": "Count of story points of user stories of a team"
    },
    "color": ["#EF9A9A", "#bcf542"],
    "xAxis": [
      {
        "type": "category",
        "name": "Iteration",
        "nameLocation": "center",
        "nameGap": 30,
        "nameTextStyle": {
          "fontSize": 15
        }
      }
    ],
    "legend": {
      "data": ["Iteration"],
      "itemGap": 5,
      "bottom": "-20px"
    },
    "dataZoom": [
      {
        "show": true,
        "type": "inside"
      }
    ],
    "yAxis": [
      {
        "type": "value",
        "name": "Storypoint count",
        "nameLocation": "end",
        "nameTextStyle": {
          "fontSize": 15,
          "padding": [0, 0, 0, 100]
        }
      }
    ],
    "series": [
      {
        "type": "bar",
        "defaultType": "bar"
      },
      {
        "type": "bar",
        "defaultType": "bar"
      }
    ],
    "grid": {
      "left": "center",
      "width": "90%",
      "height": "73%",
      "containLabel": true,
      "top": "15%"
    },
    "tooltip": {
      "trigger": "axis",
      "axisPointer": {
        "type": "shadow"
      }
    }
  },
  {
    "name": "adoStorypointPerTeam",
    "chartType": "bar",
    "supportedChartTypes": ["line", "bar", "area"],
    "textstyle": { "fontFamily": "Roboto" },
    "screenOccupancy": {
      "horizontal": "12",
      "vertical": "3"
    },
    "drilldown": {
      "name": "adoIterationUserStoriesStorypoint",
      "parameters": {
        "drilldownValue": null
      }
    },
    "selectedIndex": 5,
    "mytitle": {
      "text": "Storypoint Per Team",
      "subtitle": "Measure the number of storypoint per team"
    },
    "color": ["#EF9A9A", "#bcf542"],
    "xAxis": [
      {
        "type": "category",
        "name": "Team",
        "nameLocation": "center",
        "nameGap": 30,
        "nameTextStyle": {
          "fontSize": 15
        }
      }
    ],
    "legend": {
      "data": ["Team"],
      "itemGap": 5,
      "bottom": "-20px"
    },
    "dataZoom": [
      {
        "show": true,
        "type": "inside"
      }
    ],
    "yAxis": [
      {
        "type": "value",
        "name": "Storypoint count",
        "nameLocation": "end",
        "nameTextStyle": {
          "fontSize": 15,
          "padding": [0, 0, 0, 100]
        }
      }
    ],
    "series": [
      {
        "type": "bar",
        "defaultType": "bar"
      },
      {
        "type": "bar",
        "defaultType": "bar"
      }
    ],
    "grid": {
      "left": "center",
      "width": "90%",
      "height": "73%",
      "containLabel": true,
      "top": "15%"
    },
    "tooltip": {
      "trigger": "axis",
      "axisPointer": {
        "type": "shadow"
      }
    }
  },
  {
    "name": "adoIterationUserStoriesStorypoint",
    "chartType": "table",
    "supportedChartTypes": ["table"],
    "textstyle": { "fontFamily": "Roboto" },
    "screenOccupancy": {
      "horizontal": "12",
      "vertical": "3"
    },
    "xAxis": [
      {
        "type": "category"
      }
    ],
    "drilldown": null,
    "mytitle": {
      "text": " ",
      "subtitle": "Iteration User Stories Storypoint"
    },
    "color": ["#81C784"],
    "header": ["User Story", "Storypoint"],
    "accessColumns": ["column_1", "column_2"],
    "series": [
      {
        "type": "table",
        "defaultType": "table"
      }
    ]
  },
  {
    "name": "adoUserStoriesPerIteration",
    "chartType": "bar",
    "supportedChartTypes": ["line", "bar", "area"],
    "textstyle": { "fontFamily": "Roboto" },
    "screenOccupancy": {
      "horizontal": "12",
      "vertical": "3"
    },
    "drilldown": {
      "name": "adoTeamwiseUserStoriesInIteration",
      "parameters": {
        "drilldownValue": null
      }
    },
    "selectedIndex": 5,
    "mytitle": {
      "text": "Completed User Stories Per Iteration",
      "subtitle": "Count of user stories in an iteration"
    },
    "color": ["#EF9A9A", "#bcf542"],
    "xAxis": [
      {
        "type": "category",
        "name": "Iteration",
        "nameLocation": "center",
        "nameGap": 30,
        "nameTextStyle": {
          "fontSize": 15
        }
      }
    ],
    "legend": {
      "data": ["Iteration"],
      "itemGap": 5,
      "bottom": "-20px"
    },
    "dataZoom": [
      {
        "show": true,
        "type": "inside"
      }
    ],
    "yAxis": [
      {
        "type": "value",
        "name": "User Stories count",
        "nameLocation": "end",
        "nameTextStyle": {
          "fontSize": 15,
          "padding": [0, 0, 0, 100]
        }
      }
    ],
    "series": [
      {
        "type": "bar",
        "defaultType": "bar"
      },
      {
        "type": "bar",
        "defaultType": "bar"
      }
    ],
    "grid": {
      "left": "center",
      "width": "90%",
      "height": "73%",
      "containLabel": true,
      "top": "15%"
    },
    "tooltip": {
      "trigger": "axis",
      "axisPointer": {
        "type": "shadow"
      }
    }
  },
  {
    "name": "adoTeamwiseUserStoriesInIteration",
    "chartType": "table",
    "supportedChartTypes": ["table"],
    "textstyle": { "fontFamily": "Roboto" },
    "screenOccupancy": {
      "horizontal": "12",
      "vertical": "3"
    },
    "xAxis": [
      {
        "type": "category"
      }
    ],
    "drilldown": null,
    "mytitle": {
      "text": "Completed User Stories Per Team",
      "subtitle": "User Stories Per Team"
    },
    "color": ["#81C784"],
    "header": ["Team", "User Stories"],
    "accessColumns": ["column_1", "column_2"],
    "series": [
      {
        "type": "table",
        "defaultType": "table"
      }
    ]
  },
  {
    "name": "adoIterationsCompletedFeatures",
    "chartType": "bar",
    "supportedChartTypes": ["line", "bar", "area"],
    "textstyle": { "fontFamily": "Roboto" },
    "screenOccupancy": {
      "horizontal": "12",
      "vertical": "3"
    },
    "drilldown": {
      "name": "adoIterationCompletedFeatures",
      "parameters": {
        "drilldownValue": null
      }
    },
    "selectedIndex": 5,
    "mytitle": {
      "text": "Completed Features Per Iteration",
      "subtitle": "Count of all features completed per iteration"
    },
    "color": ["#EF9A9A", "#bcf542"],
    "xAxis": [
      {
        "type": "category",
        "name": "Iteration",
        "nameLocation": "center",
        "nameGap": 30,
        "nameTextStyle": {
          "fontSize": 15
        }
      }
    ],
    "legend": {
      "data": ["Regular", "Hotfix"],
      "itemGap": 5,
      "bottom": "-20px"
    },
    "dataZoom": [
      {
        "show": true,
        "type": "inside"
      }
    ],
    "yAxis": [
      {
        "type": "value",
        "name": "Completed features count",
        "nameLocation": "end",
        "nameTextStyle": {
          "fontSize": 15,
          "padding": [0, 0, 0, 100]
        }
      }
    ],
    "series": [
      {
        "type": "bar",
        "defaultType": "bar"
      },
      {
        "type": "bar",
        "defaultType": "bar"
      }
    ],
    "grid": {
      "left": "center",
      "width": "90%",
      "height": "73%",
      "containLabel": true,
      "top": "15%"
    },
    "tooltip": {
      "trigger": "axis",
      "axisPointer": {
        "type": "shadow"
      }
    }
  },
  {
    "name": "adoIterationCompletedFeatures",
    "chartType": "table",
    "supportedChartTypes": ["table"],
    "textstyle": { "fontFamily": "Roboto" },
    "screenOccupancy": {
      "horizontal": "12",
      "vertical": "3"
    },
    "xAxis": [
      {
        "type": "category"
      }
    ],
    "drilldown": null,
    "mytitle": {
      "text": "Features Completed In Iteration",
      "subtitle": "Feature names in an iteration"
    },
    "color": ["#81C784"],
    "header": ["Features", "Feature Closed Date"],
    "accessColumns": ["column_1", "column_2"],
    "series": [
      {
        "type": "table",
        "defaultType": "table"
      }
    ]
  },
  {
    "name": "adoDefectsClosedPerIteration",
    "chartType": "bar",
    "supportedChartTypes": ["line", "bar", "area"],
    "textstyle": { "fontFamily": "Roboto" },
    "screenOccupancy": {
      "horizontal": "12",
      "vertical": "3"
    },
    "drilldown": {
      "name": "adoDefectsClosedInIteration",
      "parameters": {
        "drilldownValue": null
      }
    },
    "selectedIndex": 5,
    "mytitle": {
      "text": "Defects Closed Per Iteration",
      "subtitle": "Count of closed defects per iteration"
    },
    "color": ["#EF9A9A", "#bcf542"],
    "xAxis": [
      {
        "type": "category",
        "name": "Iteration",
        "nameLocation": "center",
        "nameGap": 24,
        "nameTextStyle": {
          "fontSize": 15
        }
      }
    ],
    "legend": {
      "data": ["Iteration"],
      "itemGap": 5,
      "bottom": "-20px"
    },
    "dataZoom": [
      {
        "show": true,
        "type": "inside"
      }
    ],
    "yAxis": [
      {
        "type": "value",
        "name": "Defects count",
        "nameLocation": "end",
        "nameTextStyle": {
          "fontSize": 15,
          "padding": [0, 0, 0, 100]
        }
      }
    ],
    "series": [
      {
        "type": "bar",
        "defaultType": "bar"
      },
      {
        "type": "bar",
        "defaultType": "bar"
      }
    ],
    "grid": {
      "left": "center",
      "width": "90%",
      "height": "73%",
      "containLabel": true,
      "top": "15%"
    },
    "tooltip": {
      "trigger": "axis",
      "axisPointer": {
        "type": "shadow"
      }
    }
  },
  {
    "name": "adoDefectsClosedInIteration",
    "chartType": "table",
    "supportedChartTypes": ["table"],
    "textstyle": { "fontFamily": "Roboto" },
    "screenOccupancy": {
      "horizontal": "12",
      "vertical": "3"
    },
    "xAxis": [
      {
        "type": "category"
      }
    ],
    "drilldown": null,
    "mytitle": {
      "text": "Defects Closed In Iteration",
      "subtitle": "iteration wise defect names"
    },
    "color": ["#81C784"],
    "header": ["Defect", "Defect Closed Date"],
    "accessColumns": ["column_1", "column_2"],
    "series": [
      {
        "type": "table",
        "defaultType": "table"
      }
    ]
  },
  {
    "name": "adoHotfixesClosedPerIteration",
    "chartType": "bar",
    "supportedChartTypes": ["line", "bar", "area"],
    "textstyle": { "fontFamily": "Roboto" },
    "screenOccupancy": {
      "horizontal": "12",
      "vertical": "3"
    },
    "drilldown": {
      "name": "adoHotfixesClosedInIteration",
      "parameters": {
        "drilldownValue": null
      }
    },
    "selectedIndex": 5,
    "mytitle": {
      "text": "Hotfixes Closed Per Iteration",
      "subtitle": "Count of hotfixes per iteration"
    },
    "color": ["#EF9A9A", "#bcf542"],
    "xAxis": [
      {
        "type": "category",
        "name": "Iteration",
        "nameLocation": "center",
        "nameGap": 30,
        "nameTextStyle": {
          "fontSize": 15
        }
      }
    ],
    "legend": {
      "data": ["Iteration"],
      "itemGap": 5,
      "bottom": "-20px"
    },
    "dataZoom": [
      {
        "show": true,
        "type": "inside"
      }
    ],
    "yAxis": [
      {
        "type": "value",
        "name": "Hotfixes count",
        "nameLocation": "end",
        "nameTextStyle": {
          "fontSize": 15,
          "padding": [0, 0, 0, 100]
        }
      }
    ],
    "series": [
      {
        "type": "bar",
        "defaultType": "bar"
      },
      {
        "type": "bar",
        "defaultType": "bar"
      }
    ],
    "grid": {
      "left": "center",
      "width": "90%",
      "height": "73%",
      "containLabel": true,
      "top": "15%"
    },
    "tooltip": {
      "trigger": "axis",
      "axisPointer": {
        "type": "shadow"
      }
    }
  },
  {
    "name": "adoHotfixesClosedInIteration",
    "chartType": "table",
    "supportedChartTypes": ["table"],
    "textstyle": { "fontFamily": "Roboto" },
    "screenOccupancy": {
      "horizontal": "12",
      "vertical": "3"
    },
    "xAxis": [
      {
        "type": "category"
      }
    ],
    "drilldown": null,
    "mytitle": {
      "text": "Hotfixes Closed In Iteration",
      "subtitle": "Hotfixes Closed In Iteration"
    },
    "color": ["#81C784"],
    "header": ["Hotfix", "Hotfix Closed Date"],
    "accessColumns": ["column_1", "column_2"],
    "series": [
      {
        "type": "table",
        "defaultType": "table"
      }
    ]
  }
]
